C:\Users\HyperSmart\IdeaProjects\KCauldronConcrete\src\main\java\org\example\krit\kcauldronconcrete\commands\KCauldronCompleter.java
C:\Users\HyperSmart\IdeaProjects\KCauldronConcrete\src\main\java\org\example\krit\kcauldronconcrete\KCauldronConcrete.java
C:\Users\HyperSmart\IdeaProjects\KCauldronConcrete\src\main\java\org\example\krit\kcauldronconcrete\listeners\CauldronClickListener.java
C:\Users\HyperSmart\IdeaProjects\KCauldronConcrete\src\main\java\org\example\krit\kcauldronconcrete\commands\KCauldronCommand.java
C:\Users\HyperSmart\IdeaProjects\KCauldronConcrete\src\main\java\org\example\krit\kcauldronconcrete\listeners\CauldronWithConcreteListener.java
C:\Users\HyperSmart\IdeaProjects\KCauldronConcrete\src\main\java\org\example\krit\kcauldronconcrete\Scheduler.java
C:\Users\HyperSmart\IdeaProjects\KCauldronConcrete\src\main\java\org\example\krit\kcauldronconcrete\KCauldronUtils.java
